<define-tag pagetitle>DSA-4645-1 chromium</define-tag>
<define-tag report_date>2020-3-22</define-tag>
<define-tag secrefs>CVE-2019-20503 CVE-2020-6422 CVE-2020-6424 CVE-2020-6425 CVE-2020-6426 CVE-2020-6427 CVE-2020-6428 CVE-2020-6429 CVE-2020-6449</define-tag>
<define-tag packages>chromium</define-tag>
<define-tag isvulnerable>yes</define-tag>
<define-tag fixed>yes</define-tag>
<define-tag fixed-section>no</define-tag>

#use wml::debian::security



</dl>
