<define-tag pagetitle>DLA-1026-1 xorg-server</define-tag>
<define-tag report_date>2017-7-14</define-tag>
<define-tag secrefs>CVE-2017-10971 CVE-2017-10972 Bug#867492 Bug#867492</define-tag>
<define-tag packages>xorg-server</define-tag>
<define-tag isvulnerable>yes</define-tag>
<define-tag fixed>yes</define-tag>
<define-tag fixed-section>no</define-tag>

#use wml::debian::security

