<define-tag pagetitle>DLA-2079-1 otrs2</define-tag>
<define-tag report_date>2020-1-29</define-tag>
<define-tag secrefs>CVE-2020-1765 CVE-2020-1766 CVE-2020-1767</define-tag>
<define-tag packages>otrs2</define-tag>
<define-tag isvulnerable>yes</define-tag>
<define-tag fixed>yes</define-tag>
<define-tag fixed-section>no</define-tag>

#use wml::debian::security

