<define-tag pagetitle>DLA-1490-1 php5</define-tag>
<define-tag report_date>2018-9-1</define-tag>
<define-tag secrefs>CVE-2018-14851 CVE-2018-14883 Bug#890266</define-tag>
<define-tag packages>php5</define-tag>
<define-tag isvulnerable>yes</define-tag>
<define-tag fixed>yes</define-tag>
<define-tag fixed-section>no</define-tag>

#use wml::debian::security

