<define-tag pagetitle>DLA-1271-1 postgresql-9.1</define-tag>
<define-tag report_date>2018-2-7</define-tag>
<define-tag secrefs>CVE-2018-1053</define-tag>
<define-tag packages>postgresql-9.1</define-tag>
<define-tag isvulnerable>yes</define-tag>
<define-tag fixed>yes</define-tag>
<define-tag fixed-section>no</define-tag>

#use wml::debian::security

