<define-tag pagetitle>DLA-1517-1 dom4j</define-tag>
<define-tag report_date>2018-9-24</define-tag>
<define-tag secrefs>CVE-2018-1000632</define-tag>
<define-tag packages>dom4j</define-tag>
<define-tag isvulnerable>yes</define-tag>
<define-tag fixed>yes</define-tag>
<define-tag fixed-section>no</define-tag>

#use wml::debian::security

