<define-tag pagetitle>DSA-4596-1 tomcat8</define-tag>
<define-tag report_date>2019-12-27</define-tag>
<define-tag secrefs>CVE-2018-8014 CVE-2018-11784 CVE-2019-0199 CVE-2019-0221 CVE-2019-12418 CVE-2019-17563</define-tag>
<define-tag packages>tomcat8</define-tag>
<define-tag isvulnerable>yes</define-tag>
<define-tag fixed>yes</define-tag>
<define-tag fixed-section>no</define-tag>

#use wml::debian::security



</dl>
