<define-tag pagetitle>DLA-1805-1 minissdpd</define-tag>
<define-tag report_date>2019-05-26</define-tag>
<define-tag secrefs>CVE-2019-12106</define-tag>
<define-tag packages>minissdpd</define-tag>
<define-tag isvulnerable>yes</define-tag>
<define-tag fixed>yes</define-tag>
<define-tag fixed-section>no</define-tag>

#use wml::debian::security
