<define-tag pagetitle>DLA-684-1 libx11</define-tag>
<define-tag report_date>2016-10-26</define-tag>
<define-tag secrefs>CVE-2016-7942 CVE-2016-7943 Bug#840439</define-tag>
<define-tag packages>libx11</define-tag>
<define-tag isvulnerable>yes</define-tag>
<define-tag fixed>yes</define-tag>
<define-tag fixed-section>no</define-tag>

#use wml::debian::security

